{
  "arn": {
    "sensitive": false,
    "type": [
      "tuple",
      [
        "string"
      ]
    ],
    "value": [
      "arn:aws:ec2:us-east-2:266754060311:instance/i-0c734fd5b7c2657c4"
    ]
  },
  "availability_zone": {
    "sensitive": false,
    "type": [
      "tuple",
      [
        "string"
      ]
    ],
    "value": [
      "us-east-2b"
    ]
  },
  "aws_security_gr_id": {
    "sensitive": false,
    "type": "string",
    "value": "sg-0dd3891a5b48adff2"
  },
  "credit_specification": {
    "sensitive": false,
    "type": [
      "tuple",
      [
        [
          "list",
          [
            "object",
            {
              "cpu_credits": "string"
            }
          ]
        ]
      ]
    ],
    "value": [
      [
        {
          "cpu_credits": "standard"
        }
      ]
    ]
  },
  "ebs_block_device_volume_ids": {
    "sensitive": false,
    "type": [
      "tuple",
      [
        [
          "list",
          "string"
        ]
      ]
    ],
    "value": [
      []
    ]
  },
  "id": {
    "sensitive": false,
    "type": [
      "tuple",
      [
        "string"
      ]
    ],
    "value": [
      "i-0c734fd5b7c2657c4"
    ]
  },
  "instance": {
    "sensitive": false,
    "type": [
      "tuple",
      [
        [
          "object",
          {
            "ami": "string",
            "arn": "string",
            "associate_public_ip_address": "bool",
            "availability_zone": "string",
            "cpu_core_count": "number",
            "cpu_threads_per_core": "number",
            "credit_specification": [
              "list",
              [
                "object",
                {
                  "cpu_credits": "string"
                }
              ]
            ],
            "disable_api_termination": "bool",
            "ebs_block_device": [
              "set",
              [
                "object",
                {
                  "delete_on_termination": "bool",
                  "device_name": "string",
                  "encrypted": "bool",
                  "iops": "number",
                  "kms_key_id": "string",
                  "snapshot_id": "string",
                  "volume_id": "string",
                  "volume_size": "number",
                  "volume_type": "string"
                }
              ]
            ],
            "ebs_optimized": "bool",
            "ephemeral_block_device": [
              "set",
              [
                "object",
                {
                  "device_name": "string",
                  "no_device": "bool",
                  "virtual_name": "string"
                }
              ]
            ],
            "get_password_data": "bool",
            "hibernation": "bool",
            "host_id": "string",
            "iam_instance_profile": "string",
            "id": "string",
            "instance_initiated_shutdown_behavior": "string",
            "instance_state": "string",
            "instance_type": "string",
            "ipv6_address_count": "number",
            "ipv6_addresses": [
              "list",
              "string"
            ],
            "key_name": "string",
            "metadata_options": [
              "list",
              [
                "object",
                {
                  "http_endpoint": "string",
                  "http_put_response_hop_limit": "number",
                  "http_tokens": "string"
                }
              ]
            ],
            "monitoring": "bool",
            "network_interface": [
              "set",
              [
                "object",
                {
                  "delete_on_termination": "bool",
                  "device_index": "number",
                  "network_interface_id": "string"
                }
              ]
            ],
            "outpost_arn": "string",
            "password_data": "string",
            "placement_group": "string",
            "primary_network_interface_id": "string",
            "private_dns": "string",
            "private_ip": "string",
            "public_dns": "string",
            "public_ip": "string",
            "root_block_device": [
              "list",
              [
                "object",
                {
                  "delete_on_termination": "bool",
                  "device_name": "string",
                  "encrypted": "bool",
                  "iops": "number",
                  "kms_key_id": "string",
                  "volume_id": "string",
                  "volume_size": "number",
                  "volume_type": "string"
                }
              ]
            ],
            "secondary_private_ips": [
              "set",
              "string"
            ],
            "security_groups": [
              "set",
              "string"
            ],
            "source_dest_check": "bool",
            "subnet_id": "string",
            "tags": [
              "map",
              "string"
            ],
            "tenancy": "string",
            "timeouts": [
              "object",
              {
                "create": "string",
                "delete": "string",
                "update": "string"
              }
            ],
            "user_data": "string",
            "user_data_base64": "string",
            "volume_tags": [
              "map",
              "string"
            ],
            "vpc_security_group_ids": [
              "set",
              "string"
            ]
          }
        ]
      ]
    ],
    "value": [
      {
        "ami": "ami-0bbe28eb2173f6167",
        "arn": "arn:aws:ec2:us-east-2:266754060311:instance/i-0c734fd5b7c2657c4",
        "associate_public_ip_address": true,
        "availability_zone": "us-east-2b",
        "cpu_core_count": 1,
        "cpu_threads_per_core": 1,
        "credit_specification": [
          {
            "cpu_credits": "standard"
          }
        ],
        "disable_api_termination": false,
        "ebs_block_device": [],
        "ebs_optimized": false,
        "ephemeral_block_device": [],
        "get_password_data": false,
        "hibernation": false,
        "host_id": null,
        "iam_instance_profile": "",
        "id": "i-0c734fd5b7c2657c4",
        "instance_initiated_shutdown_behavior": "",
        "instance_state": "running",
        "instance_type": "t2.micro",
        "ipv6_address_count": 0,
        "ipv6_addresses": [],
        "key_name": "",
        "metadata_options": [
          {
            "http_endpoint": "enabled",
            "http_put_response_hop_limit": 1,
            "http_tokens": "optional"
          }
        ],
        "monitoring": false,
        "network_interface": [],
        "outpost_arn": "",
        "password_data": "",
        "placement_group": "",
        "primary_network_interface_id": "eni-0c7e3c87a3f53cf2f",
        "private_dns": "ip-172-31-0-11.us-east-2.compute.internal",
        "private_ip": "172.31.0.11",
        "public_dns": "ec2-3-17-11-232.us-east-2.compute.amazonaws.com",
        "public_ip": "3.17.11.232",
        "root_block_device": [
          {
            "delete_on_termination": true,
            "device_name": "/dev/sda1",
            "encrypted": false,
            "iops": 100,
            "kms_key_id": "",
            "volume_id": "vol-07c6d9ff4a7441a44",
            "volume_size": 8,
            "volume_type": "gp2"
          }
        ],
        "secondary_private_ips": [],
        "security_groups": [],
        "source_dest_check": true,
        "subnet_id": "subnet-05c7a31d0134d5f91",
        "tags": {
          "Name": "UB18"
        },
        "tenancy": "default",
        "timeouts": null,
        "user_data": null,
        "user_data_base64": null,
        "volume_tags": {
          "Name": "UB18"
        },
        "vpc_security_group_ids": [
          "sg-03f0f7b6a3e663f6a"
        ]
      }
    ]
  },
  "instance_state": {
    "sensitive": false,
    "type": [
      "tuple",
      [
        "string"
      ]
    ],
    "value": [
      "running"
    ]
  },
  "ipv6_addresses": {
    "sensitive": false,
    "type": [
      "tuple",
      [
        [
          "list",
          "string"
        ]
      ]
    ],
    "value": [
      []
    ]
  },
  "key_name": {
    "sensitive": false,
    "type": [
      "tuple",
      [
        "string"
      ]
    ],
    "value": [
      ""
    ]
  },
  "password_data": {
    "sensitive": false,
    "type": [
      "tuple",
      [
        "string"
      ]
    ],
    "value": [
      ""
    ]
  },
  "placement_group": {
    "sensitive": false,
    "type": [
      "tuple",
      [
        "string"
      ]
    ],
    "value": [
      ""
    ]
  },
  "primary_network_interface_id": {
    "sensitive": false,
    "type": [
      "tuple",
      [
        "string"
      ]
    ],
    "value": [
      "eni-0c7e3c87a3f53cf2f"
    ]
  },
  "private_dns": {
    "sensitive": false,
    "type": [
      "tuple",
      [
        "string"
      ]
    ],
    "value": [
      "ip-172-31-0-11.us-east-2.compute.internal"
    ]
  },
  "private_ip": {
    "sensitive": false,
    "type": [
      "tuple",
      [
        "string"
      ]
    ],
    "value": [
      "172.31.0.11"
    ]
  },
  "public_dns": {
    "sensitive": false,
    "type": [
      "tuple",
      [
        "string"
      ]
    ],
    "value": [
      "ec2-3-17-11-232.us-east-2.compute.amazonaws.com"
    ]
  },
  "public_ip": {
    "sensitive": false,
    "type": [
      "tuple",
      [
        "string"
      ]
    ],
    "value": [
      "3.17.11.232"
    ]
  },
  "root_block_device_volume_ids": {
    "sensitive": false,
    "type": [
      "tuple",
      [
        [
          "list",
          "string"
        ]
      ]
    ],
    "value": [
      [
        "vol-07c6d9ff4a7441a44"
      ]
    ]
  },
  "security_groups": {
    "sensitive": false,
    "type": [
      "tuple",
      [
        [
          "set",
          "string"
        ]
      ]
    ],
    "value": [
      []
    ]
  },
  "subnet_id": {
    "sensitive": false,
    "type": [
      "tuple",
      [
        "string"
      ]
    ],
    "value": [
      "subnet-05c7a31d0134d5f91"
    ]
  },
  "tags": {
    "sensitive": false,
    "type": [
      "tuple",
      [
        [
          "map",
          "string"
        ]
      ]
    ],
    "value": [
      {
        "Name": "UB18"
      }
    ]
  },
  "volume_tags": {
    "sensitive": false,
    "type": [
      "tuple",
      [
        [
          "map",
          "string"
        ]
      ]
    ],
    "value": [
      {
        "Name": "UB18"
      }
    ]
  },
  "vpc_security_group_ids": {
    "sensitive": false,
    "type": [
      "tuple",
      [
        [
          "set",
          "string"
        ]
      ]
    ],
    "value": [
      [
        "sg-03f0f7b6a3e663f6a"
      ]
    ]
  }
}
